{
  "cacheBootResources": true,
  "config": [ ],
  "debugBuild": false,
  "entryAssembly": "ChristyAlsop.Wasm",
  "icuDataMode": 0,
  "linkerEnabled": true,
  "resources": {
    "assembly": {
      "AntDesign.dll": "sha256-E82iNoHBjVuMLK7jyJ4asc8PZQcfMD\/IWN6vvzw\/PcQ=",
      "BlazorAnimate.dll": "sha256-vGiYBLVyybxLbKCTltgck+lsQRQ3jNQ5QnA+alJq\/7Q=",
      "Blazored.LocalStorage.dll": "sha256-6RRoYeDP3d0xabXmcCMF66wXeJlXVPem28Trs8sQiis=",
      "ChristyAlsop.Domain.dll": "sha256-WlCaeq42YAywh0t9ACQnVxgM1cM2qz35zX6jT1VBJVY=",
      "ChristyAlsop.Wasm.dll": "sha256-GZBow6Qyhc1be0IGpEDAT6\/\/p7Op5EpAvh3jq4l8eLs=",
      "Microsoft.AspNetCore.Authentication.Abstractions.dll": "sha256-iw51tdKcETC5QqlJLWett1iPlLZgUrRdZfkV7EoaD4k=",
      "Microsoft.AspNetCore.Authentication.Cookies.dll": "sha256-VDcv3ZqqpPe4a8zkNMrMe5pl\/fQhlbcaMRAhwL5Z10s=",
      "Microsoft.AspNetCore.Authentication.Core.dll": "sha256-NP2svkDxlIVJsMiWAmj552NCYo4j7YnOUr2+jkz5+pc=",
      "Microsoft.AspNetCore.Authentication.dll": "sha256-DFfNBJMZfGVkHC93DoJ07\/nLtUo9ZomWWrRGKVnRTII=",
      "Microsoft.AspNetCore.Authorization.dll": "sha256-e4b25GdKdoOTUCnpMoibSvwvSiai+JGhoaVN6JQhXu8=",
      "Microsoft.AspNetCore.Components.Authorization.dll": "sha256-pOT7mBiEkfFNu0T5Ptvp5u+LP3ZZ416QZUM+I\/i20eI=",
      "Microsoft.AspNetCore.Components.DataAnnotations.Validation.dll": "sha256-VGaB03HIjFg4jeK7BomIFzlhhY3vW5N+jWuRqZkbJsY=",
      "Microsoft.AspNetCore.Components.dll": "sha256-o2TC0BqazeUuE7zXlfgG4lu\/t0pu8yBf0bDIAsdhVtk=",
      "Microsoft.AspNetCore.Components.Forms.dll": "sha256-Bh+ffoGhYTPhp2iZih3cLdWzcrA1PjHDNzp3ziROSRo=",
      "Microsoft.AspNetCore.Components.Web.dll": "sha256-AeVEGYopYgvwDuBfH9\/px5aDmRLmp3N+Uju0DJCihsg=",
      "Microsoft.AspNetCore.Components.WebAssembly.dll": "sha256-feIvaWIgyph\/U+jPhxNfcHnVkT1\/AepQHkJJeO2t6Ig=",
      "Microsoft.AspNetCore.Cryptography.Internal.dll": "sha256-tAP2veapO3lzq6P9jFAeTzx0soPetgvwSakGawn7O3A=",
      "Microsoft.AspNetCore.Cryptography.KeyDerivation.dll": "sha256-oyXlzltKWEpU6tK4BbQRPrE6dOSDe3Z5TARBCwTf8Ms=",
      "Microsoft.AspNetCore.DataProtection.Abstractions.dll": "sha256-5WvGaHLGBQmy36Y6mUYp9pYXH8o8TuUf2NXH0QwStX8=",
      "Microsoft.AspNetCore.DataProtection.dll": "sha256-4jCqjLTqT95geyl3iC3DTJS+AiW1cjbi1rtTnfABk+o=",
      "Microsoft.AspNetCore.Hosting.Abstractions.dll": "sha256-4VEnr\/VXawxchLjnFr86t8XA5fF3ZLb61F6I54GBAoQ=",
      "Microsoft.AspNetCore.Hosting.Server.Abstractions.dll": "sha256-3FWyABkOEBeAcg6oyNO1PytWU+vm8OBnbxtkWVup0TI=",
      "Microsoft.AspNetCore.Http.Abstractions.dll": "sha256-qFKmKNr9iAZiZxOVvLJBfMhkKfDy1GvY81fHh1hiphU=",
      "Microsoft.AspNetCore.Http.dll": "sha256-rL7yDIoSBIK2HEpXD\/iOhoUrVkI3rsR07sn5BA5ddUg=",
      "Microsoft.AspNetCore.Http.Extensions.dll": "sha256-dsGZ+sGJdrYngMg72CIF31THFtl6ovcKTjtGtj9orn8=",
      "Microsoft.AspNetCore.Http.Features.dll": "sha256-J2xQUZ4BD6tsrQkvGS5HDQfkTGMzmaS76TA9nJrtCpg=",
      "Microsoft.AspNetCore.Identity.dll": "sha256-FVyDy+qSX5V2Hbw+NvT+aTYyA+3Zcoj23D6pK3a4Ir8=",
      "Microsoft.AspNetCore.Identity.EntityFrameworkCore.dll": "sha256-umUGaKlTHM8Cg\/WEB1EUy7+OwMMzwpgdp+DXinlz8tM=",
      "Microsoft.AspNetCore.Metadata.dll": "sha256-WVdFcFlQrySIkdrkORU\/avh3QRCh8SM6ibI2Js0fV44=",
      "Microsoft.AspNetCore.WebUtilities.dll": "sha256-D5akJeBd7NNITuzAXxlX7zl2jfsc4uTKyeEKwwNhqoo=",
      "Microsoft.EntityFrameworkCore.Abstractions.dll": "sha256-TiIfNdEDdwW5eYPCu4ciBr3a\/lQV65vX60XRtZM4gKs=",
      "Microsoft.EntityFrameworkCore.dll": "sha256-015Pasx6eyayzhZujsRIKpZEfF0Qlz2Qnp+akQNieFE=",
      "Microsoft.EntityFrameworkCore.Relational.dll": "sha256-7YxC3aA1kN3ri0J2bLQh5YClKeCK+IzCbVF+biQHOS8=",
      "Microsoft.Extensions.Caching.Abstractions.dll": "sha256-7l0glBpeQ35i6az3jBOTrewTadH9\/cnmI76iA63TmVE=",
      "Microsoft.Extensions.Caching.Memory.dll": "sha256-lc3HiVG8g4boPJLMV1lQ\/9KnHsKptuD9a4QdKjpGl1E=",
      "Microsoft.Extensions.Configuration.Abstractions.dll": "sha256-OtXu7Uaz7PwAGX\/xk2UnE0rJBFaP+qn726LR2gY+fkk=",
      "Microsoft.Extensions.Configuration.dll": "sha256-PVu4AodDAv0G5VHRfaXecPVBZ2iQXl91gydIhAGzauU=",
      "Microsoft.Extensions.Configuration.Json.dll": "sha256-fF3xaP+hT6R3GYUctLIY1ixaXQ8mrHzwWHHf2dKfueU=",
      "Microsoft.Extensions.DependencyInjection.Abstractions.dll": "sha256-0+gsSA\/kv+e4MsKLJOttxRSkhpujQB3paIv+Bg+w0fQ=",
      "Microsoft.Extensions.DependencyInjection.dll": "sha256-hOj7HO5VjvoL3SLzminSJ1HyaZG54QqMQACUmdOsorE=",
      "Microsoft.Extensions.FileProviders.Abstractions.dll": "sha256-9XeroGTiiZmPGbXu3MnSztpvuXU\/MqleIZHY3z3ggzU=",
      "Microsoft.Extensions.Hosting.Abstractions.dll": "sha256-\/GeZD7RNA8nGEyPjYq77dJAkGSlj2HzJnqzM9bRoRJ8=",
      "Microsoft.Extensions.Identity.Core.dll": "sha256-tjJddfoDvfff3o0B9B4OsEyWH3Ub2b+qrKZxVRmpF5Q=",
      "Microsoft.Extensions.Identity.Stores.dll": "sha256-3Pf1YP3LloGB2DqGa8QYtu4YMykmAMrTnzIXxjivZ0k=",
      "Microsoft.Extensions.Logging.Abstractions.dll": "sha256-f1jUJHEndpgw6UqDIhGBv\/JkDsVTL5jKWD6FzMselTQ=",
      "Microsoft.Extensions.Logging.dll": "sha256-EjuDHqdxg8SoEA1cBEhbnrKdeO2lAQljhuSWgWa6GsE=",
      "Microsoft.Extensions.ObjectPool.dll": "sha256-UCVqOmu+z9\/M5Wahsgr7zKRWdGQWNvXGWLlEa1gkFuw=",
      "Microsoft.Extensions.Options.dll": "sha256-wwgc75lpOyA\/BARbuFdpQeMcxwl0AvVqeNU+mLhlU80=",
      "Microsoft.Extensions.Primitives.dll": "sha256-921co70Iz0Xj+b5lYNPyyKhLWTqeaP\/UL2QkVGRRc9Q=",
      "Microsoft.Extensions.WebEncoders.dll": "sha256-2t8sbDe7f\/R1bIhxnBPaLHVWwPZcyhKoR8vAkvN\/+Jk=",
      "Microsoft.JSInterop.dll": "sha256-k\/QImv33ZP6n2pXB7nNpu6K0uZjIo32XYfTZpdwLo+I=",
      "Microsoft.JSInterop.WebAssembly.dll": "sha256-vzwaIvFhA\/CHxhMcXKNUOu7C+zSrSm+hvDEmZhciN54=",
      "Microsoft.Net.Http.Headers.dll": "sha256-P66ftDrXwc6ayND8uYzIk0CPQy1GjNZAPHx9RMhi3V4=",
      "Microsoft.Win32.Primitives.dll": "sha256-EJmeEfA\/e02PX7zIixPG8zGLlShic0qR65EQbx3Nrz0=",
      "Microsoft.Win32.Registry.dll": "sha256-42OYm53bQz5k+QyiRc629U+yN2pTsTv7FfH5mMRPv0E=",
      "netstandard.dll": "sha256-LCyXs7TbvtfRweqMtrAfjctEU8jeXjBjFcHt+6UWoBU=",
      "OneOf.dll": "sha256-K99lDyL6VrtTDYGRk5o+Q3caW25Uogee\/1e7aIvpgLY=",
      "System.Buffers.dll": "sha256-EU\/M7fMaIExmoXdqROthNr+dviR2ERGXje4t5YPtm90=",
      "System.Collections.Concurrent.dll": "sha256-8z0CvZlRU1riBs9AZTAb+RBOi+yeLvOQl2B9cpQl6Yw=",
      "System.Collections.dll": "sha256-+lzcHAeJR\/2CK5tAmWivcMNGkeK25O2i\/c8cS173JeI=",
      "System.Collections.Immutable.dll": "sha256-Yay2Oo2AZRTH+JSiSuE36D5iuHhEnUjXBiC+AtAz2TU=",
      "System.Collections.NonGeneric.dll": "sha256-hP1eQ8kWma5qWi+BEqvg5mMoS+PnBevZTWz\/ZEM6tTw=",
      "System.Collections.Specialized.dll": "sha256-6USNLsLAJXoci9XubP1gtqzKsAppOoUhtyJI6vECwcw=",
      "System.ComponentModel.Annotations.dll": "sha256-9naOli9xgA9kT3Q5NHD61bEqElwlwEpSLRX2zskPFxw=",
      "System.ComponentModel.dll": "sha256-3navpBaA6IMReQ6lD+nPuY7xs2yrLPz80ZhjAhWlZd4=",
      "System.ComponentModel.Primitives.dll": "sha256-OG7BAhsj7wRMvURKoVPUcWBWIIIdQITvlVYXfl\/U0Hs=",
      "System.ComponentModel.TypeConverter.dll": "sha256-6ztFWeWvF9dJoYS6SaxFeyRfTXH\/Q1QBwL5sNq9KHQA=",
      "System.Console.dll": "sha256-re+G6bn08Z1\/qZV9sdMpFNdaOJ31TyWnpsv9RY8FCvw=",
      "System.Data.Common.dll": "sha256-WqVS+KmaftFCYj+IX0CTKKwa3kNpoiBq84zpguZW4iM=",
      "System.Diagnostics.DiagnosticSource.dll": "sha256-kuxZfzitT\/sVKKYnmO1X0WdSsMtXUVy7HgTi0S+p9hw=",
      "System.Diagnostics.TraceSource.dll": "sha256-0ptkxvTUkEDx9gZp9R9j5gFDnnTdzvdmMtBvkcpjwnc=",
      "System.Diagnostics.Tracing.dll": "sha256-c98aEgVht9Xa2kff7WQYn+4bV+ICxWnaJiLqn9PNiwI=",
      "System.dll": "sha256-ljAixqxfpn4+cJtbSNGcPETRTmB\/8ARIQEBee8ffRoQ=",
      "System.Linq.dll": "sha256-vegnpiL39v4B14BRszY95u5D6PDBJN3Dss6gI2jIYGI=",
      "System.Linq.Expressions.dll": "sha256-HnqFRKzr+h2Ihtb5K0eGjyZWKta6v5zpOfxwtzE02i4=",
      "System.Linq.Queryable.dll": "sha256-3xtiSjUZd23L6mfXtmv031m4qBL\/tgd1tITnTwGcJik=",
      "System.Memory.dll": "sha256-Svv2k2DGzg1Jr1BwfxWWWy38wAbcNKkCaNpsBVxGYag=",
      "System.Net.Http.dll": "sha256-fjU2VuScF2DPmwM9ehBqeZ\/Snb9JXS55oZbV\/gsW53Y=",
      "System.Net.Mail.dll": "sha256-5lwneOxwGSfPkkPjboGjEVMKNIzlrzwqkbjq9F9YqCg=",
      "System.Net.NetworkInformation.dll": "sha256-22csVjjGRsfWZYPZivy\/SCXGTLkkQJG\/SBruJ4mO\/cQ=",
      "System.Net.Primitives.dll": "sha256-FmM7NzpNZiMpEcPR\/J8Mjkju5ZdDDTzRMxFclrQ0dis=",
      "System.Net.Requests.dll": "sha256-XRjuP+8AGtKUfrNi3JuTwaFKOLVofJGrvgI2j\/omaeo=",
      "System.Net.WebSockets.dll": "sha256-do+NsNLZZmKHA80BmKGxmmx0TgRDR\/PQw3fvTOi3R7Y=",
      "System.ObjectModel.dll": "sha256-3FOZ7sDNPrw6SdWJF3zb6ibYKL7MXQgtSTT0BqxJEyE=",
      "System.Private.CoreLib.dll": "sha256-Tu7CQdYqAokjSXwhw669bmADwcrzXvoJq2Qvtv7PN8c=",
      "System.Private.Runtime.InteropServices.JavaScript.dll": "sha256-\/76dC0Dv\/QKgds6mqGFtJKK8ksindd8dIADFnex\/vXQ=",
      "System.Private.Uri.dll": "sha256-IH4BE3bazZLR\/uc0pKpVnkFGnpbmzae6h6Nzuxo\/wzc=",
      "System.Private.Xml.dll": "sha256-mca8ridnTDQwsbNrdR5NPLy6Vc7N\/jaTEKENrjW68k8=",
      "System.Private.Xml.Linq.dll": "sha256-BriGSwKuv7kEqvN4cZKhJw6rpXRHVQbJsWZLDV5\/QVU=",
      "System.Resources.ResourceManager.dll": "sha256-W3o9nBgBIKQvyRqUqknI\/G8buGtAuA3GNVV9iXU7zYk=",
      "System.Runtime.CompilerServices.Unsafe.dll": "sha256-tJtIvylvfI5P+7wkbkXSAn502kMyiRxLIYMsZ4XSpog=",
      "System.Runtime.dll": "sha256-b0VxoX9pPaJYhb2vLRzsntEvmGeGxR6aclsfz\/IMrL8=",
      "System.Runtime.Extensions.dll": "sha256-vSXwoKqsdoCOBwLZGYrGh3sbL9\/fYI5ZhLme6C4C2sI=",
      "System.Runtime.InteropServices.dll": "sha256-xOy4Y\/KDtF6Qhob8feESX9OfGSpFU95xhJ64dW3YPDw=",
      "System.Runtime.InteropServices.RuntimeInformation.dll": "sha256-GOeBQ\/e\/xECn5MwrM0R9YjzyEttfR5e\/cwlZF\/z3LRo=",
      "System.Runtime.Numerics.dll": "sha256-zA6h2dLTWi472a6j08q3PPJ49TJ2ZMZVV8TZ3bIqAEw=",
      "System.Security.AccessControl.dll": "sha256-isNXtjRa80t4PHGrr7UV3oqmsIZu5B4h3q+xjB0BQoQ=",
      "System.Security.Claims.dll": "sha256-zRQX+fXxVrBjK8ZrGVHiJpNKDFy3GsebSg3DQT0jUnA=",
      "System.Security.Cryptography.Algorithms.dll": "sha256-u3MOd45LqBkLRXd939IcLV\/68dwfWdSUt6IdNRgrA9Y=",
      "System.Security.Cryptography.Csp.dll": "sha256-ggWvTZwfvQbAVWt5LlzXsZRiQ\/D0432xCn1ZSFB5lOo=",
      "System.Security.Cryptography.Encoding.dll": "sha256-cej4BmjsQJslmUqnlLl4dimBPJx52vyY9rfSpMMzBOI=",
      "System.Security.Cryptography.Pkcs.dll": "sha256-N9DCLv4KncFaeu+Mm\/p0z9Tpm18+0BHixwnRgbTu9aI=",
      "System.Security.Cryptography.Primitives.dll": "sha256-5IUwrlX8umh97loDPTlZ9VSumK6d7fPWTh\/OshNn8xc=",
      "System.Security.Cryptography.X509Certificates.dll": "sha256-mvI3XxRgiyvd6cypFBQqI3v6HUjrqiWhFXdqTclGUu8=",
      "System.Security.Cryptography.Xml.dll": "sha256-7+zqG+1zKg9E8FY+goqBhYQMEMi6XJ5kjHHxKwjKvwk=",
      "System.Security.Permissions.dll": "sha256-jKmbTXbScI0nBA2C2HyfK+smmH4oMUauprwnXZLolc4=",
      "System.Security.Principal.Windows.dll": "sha256-1kjkYVq1bY6nYWSDIldyeC3WqEEOXzxcLsUqmAMg5rM=",
      "System.Text.Encoding.Extensions.dll": "sha256-cXjNQlwUPWIVideAzHfT04qpOIfbmtF3vZ\/NI5VzqlE=",
      "System.Text.Encodings.Web.dll": "sha256-QhLdY2kZsXzx+S+WeKji1a5QXqyzHd5v\/fb54FbXqFg=",
      "System.Text.Json.dll": "sha256-W+ii7UOBxvZUMu6+exr+ShUf8kENM1QGlckfXZC5e5w=",
      "System.Text.RegularExpressions.dll": "sha256-IlaeayPmrYb85c1AXCLeK\/zXVC3jYZSzcCLza1c5MDM=",
      "System.Threading.dll": "sha256-BEa8uGBAlrpC4\/24rRkYL2tF2ZYcD3tfZy8hQ93eXEI=",
      "System.Transactions.Local.dll": "sha256-+C8qggac8byVzcMgCCml8K8t\/xDvuinfPx0Ljd9Wx\/Q="
    },
    "extensions": null,
    "lazyAssembly": null,
    "libraryInitializers": null,
    "pdb": null,
    "runtime": {
      "dotnet.6.0.3.f2myxofs9i.js": "sha256-JVmpMvixg3KbA4ng1VWzKVdKlT9KLLa9VSHEZgMX9mc=",
      "dotnet.timezones.blat": "sha256-scXGarUHqfFWPq0d6kt1FgrQvd1\/ndIwUTFptznHbsc=",
      "dotnet.wasm": "sha256-9TuHp9Q7YeOhYsjcJJkPwY2NlD3ozWf8B8gKxC+dGqI=",
      "icudt.dat": "sha256-Zuq0dWAsBm6\/2lSOsz7+H9PvFaRn61KIXHMMwXDfvyE=",
      "icudt_CJK.dat": "sha256-WPyI4hWDPnOw62Nr27FkzGjdbucZnQD+Ph+GOPhAedw=",
      "icudt_EFIGS.dat": "sha256-4RwaPx87Z4dvn77ie\/ro3\/QzyS+\/gGmO3Y\/0CSAXw4k=",
      "icudt_no_CJK.dat": "sha256-OxylFgLJlFqixsj+nLxYVsv5iZLvfIKMpLf9hrWaChA="
    },
    "satelliteResources": null
  }
}